{
    "author": [
        "_Middel_"
    ],
    "name": "Counting",
    "install_msg": "Thanks for installing.",
    "description": "Count from 1 to infinity! with some customizable settings.",
    "short": "Count from 1 to infinity!",
    "hidden": false,
    "min_bot_version": "3.5.13",
    "tags": [
        "counting",
        "count"
    ],
    "permissions": [
        "manage_messages"
    ],
    "requirements": ["tabulate", "emoji", "apscheduler"],
    "min_python_version": [
        3,
        9,
        0
    ],
    "end_user_data_statement": "This cog does not store any End User Data.",
    "type": "COG"
}