{
    "author": [
        "_Middel_"
    ],
    "description": "Check the current weather in many cities around the world including in Kelvin.",
    "disabled": false,
    "end_user_data_statement": "This cog may store User ID's for the purposes of setting default preferred temperature units.",
    "hidden": false,
    "install_msg": "Thanks for installing!",
    "max_bot_version": "0.0.0",
    "min_bot_version": "3.5.0",
    "min_python_version": [
        3,
        7,
        0
    ],
    "name": "Weather",
    "permissions": [
        "embed_links"
    ],
    "required_cogs": {},
    "requirements": [],
    "short": "Show the current weather in specified locations!",
    "tags": [
        "weather",
        "utility"
    ],
    "type": "COG"
}